
       \\
                      ##         .
                ## ## ##        ==
             ## ## ## ## ##    ===
         /"""""""""""""""""\___/ ===
    ~~~ {~~ ~~~~ ~~~ ~~~~ ~~~ ~ /  ===- ~~~
         \______ o           __/
           \    \         __/
            \____\_______/
